com\pilot\utilities\JsonBinarySqlTypeDescriptor$1.class
com\pilot\models\JsonBinaryType.class
com\pilot\models\JsonStringType.class
com\pilot\dao\AssetDao.class
com\pilot\controllers\AssetDetailsController.class
com\pilot\models\AdditionalAttributes.class
com\pilot\services\AssetDetailsService.class
com\pilot\utilities\JsonBinarySqlTypeDescriptor.class
com\pilot\utilities\AssetApiResponse.class
com\pilot\utilities\JsonTypeDescriptor.class
com\pilot\dao\EmployeeDao.class
com\pilot\controllers\AssetController.class
com\pilot\dao\AssetDetailsDao.class
com\pilot\services\EmployeeService.class
com\pilot\utilities\JacksonUtil.class
com\pilot\utilities\JsonTypeDescriptor$1.class
com\pilot\controllers\EmployeeController.class
com\pilot\models\AssetDetails.class
com\pilot\services\AssetService.class
com\pilot\utilities\JsonStringSqlTypeDescriptor.class
com\pilot\utilities\AbstractJsonSqlTypeDescriptor.class
com\pilot\utilities\JsonStringSqlTypeDescriptor$1.class
com\pilot\models\AssetMasterData.class
com\pilot\models\Attribute.class
com\pilot\utilities\AbstractJsonSqlTypeDescriptor$1.class
com\pilot\models\Employee.class
com\pilot\utilities\JsonListType.class
com\pilot\models\BaseEntity.class
com\pilot\utilities\JsonListType$1.class
